{
    "nextId": 13,
    "items": [
        {
            "id": 0,
            "owner": "Bil Getz",
            "price": 1000,
            "category": "'public'",
            "users": 10000000000,
            "registeredAt": "2019-09-09T09:00:19Z"
        },
        {
            "id": 1,
            "owner": "Dmitry Yankovskiy",
            "price": 20,
            "category": "private",
            "users": 9,
            "registeredAt": "2019-09-09T09:08:33Z"
        },
        {
            "id": 2,
            "owner": "Dmitry Leshchenko",
            "price": 10,
            "category": "public",
            "users": 7,
            "registeredAt": "2019-09-09T09:15:55Z"
        },
        {
            "id": 3,
            "owner": "Kianu Rivz",
            "price": 23,
            "category": "John Wick",
            "users": 8,
            "registeredAt": "2019-09-23T19:58:31.945Z"
        }
    ]
}