{
    "nextId": 2,
    "items": [
        {
            "id": 0,
            "login": "bogdan228",
            "role": 0,
            "fullname": "Shaposhnik Bogdan",
            "registeredAt": "2019-09-09T10:00:19Z",
            "avaUrl": "https://siniyej.ru/image/cache/catalog/animals/spiders/subsidiary/tarantula-brachypelma-smithi-spider-1080x720.jpg",
            "isDisabled": false
        },
        {
            "id": 1,
            "login": "kolyamba",
            "role": 0,
            "fullname": "Kozak Nicolay",
            "registeredAt": "2019-09-09T10:33:22Z",
            "avaUrl": "https://web.telegram.org/11acf90d-a4b8-47e4-8e9d-ffa94d6f4172",
            "isDisabled": false
        }
    ]
}